{
    "title": "private_gardens",
    "desc": "main title",
    "items": [
        {
            "title": "dupa romna",
            "desc": "tralal ala laa \nenter \neenter",
            "thumbnails": [
                "a1.jpg",
                "d2.jpg",
                "d3.jpg",
                "d4.jpg"
            ],
            "images": [
                "d1.jpg",
                "d2.jpg",
                "d3.jpg",
                "d4.jpg"
            ]
        },
        {
            "title": "Ogrody 2",
            "desc": "tralal ala laa \nenter \neenter",
            "thumbnails": [
                "b2.jpg",
                "b2.jpg",
                "b3.jpg",
                "b4.jpg",
                "b5.jpg",
                "b6.jpg",
                "b7.jpg"
            ],
            "images": [
                "b2.jpg",
                "b2.jpg",
                "b3.jpg",
                "b4.jpg",
                "b5.jpg",
                "b6.jpg",
                "b7.jpg"
            ]
        },
        {
            "title": "Ogrody 3",
            "desc": "tralal ala l",
            "thumbnails": [
                "c1.jpg",
                "c2.jpg",
                "c3.jpg",
                "c4.jpg",
                "c5.jpg",
                "c6.jpg",
                "c7.jpg",
                "c8.jpg",
                "c9.jpg"
            ],
            "images": [
                "c1.jpg",
                "c2.jpg",
                "c3.jpg",
                "c4.jpg",
                "c5.jpg",
                "c6.jpg",
                "c7.jpg",
                "c8.jpg",
                "c9.jpg"
            ]
        },
        {
            "title": "Ogrody 4",
            "desc": "tralal ala l",
            "thumbnails": [
                "d1.jpg",
                "d2.jpg",
                "d3.jpg",
                "d4.jpg"
            ],  "images": [
                "d1.jpg",
                "d2.jpg",
                "d3.jpg",
                "d4.jpg"
            ]
        }
    ]
}
